<?xml version="1.0" encoding="UTF-8"?>
<svg width="16px" height="16px" viewBox="0 0 16 16" version="1.1" xmlns="http://www.w3.org/2000/svg" xmlns:xlink="http://www.w3.org/1999/xlink">
    <!-- Generator: Sketch 61.2 (89653) - https://sketch.com -->
    <title>Group 7@1,5x</title>
    <desc>Created with Sketch.</desc>
    <g id="Page-1" stroke="none" stroke-width="1" fill="none" fill-rule="evenodd" stroke-linecap="round" stroke-linejoin="round">
        <g id="home" transform="translate(-533.000000, -3781.000000)" stroke="#AE7C51">
            <g id="Group-59" transform="translate(122.000000, 3413.000000)">
                <g id="Group-58" transform="translate(0.000000, 121.000000)">
                    <g id="Group-15" transform="translate(412.000000, 247.000000)">
                        <g id="Group-7" transform="translate(-0.000000, 1.000000)">
                            <path d="M14.0000395,6.3603644 L14.0000395,7.0043644 C13.998267,10.1044445 11.9576453,12.8341135 8.98478621,13.7130951 C6.01192713,14.5920767 2.815015,13.4109829 1.12770808,10.8103108 C-0.559598841,8.20963878 -0.335356066,4.80891168 1.67883146,2.4523149 C3.69301898,0.0957181159 7.01733838,-0.655367903 9.84903952,0.606364398" id="Path"></path>
                            <polyline id="Path" points="14.0000395 1.4043644 7.00003952 8.4113644 4.90003952 6.3113644"></polyline>
                        </g>
                    </g>
                </g>
            </g>
        </g>
    </g>
</svg>