<?xml version="1.0" encoding="UTF-8"?>
<svg width="19px" height="15px" viewBox="0 0 19 15" version="1.1" xmlns="http://www.w3.org/2000/svg" xmlns:xlink="http://www.w3.org/1999/xlink">
    <!-- Generator: Sketch 61.2 (89653) - https://sketch.com -->
    <title>e-mail@1,5x</title>
    <desc>Created with Sketch.</desc>
    <g id="Page-1" stroke="none" stroke-width="1" fill="none" fill-rule="evenodd" stroke-linecap="round" stroke-linejoin="round">
        <g id="home" transform="translate(-1061.000000, -25.000000)" stroke="#E5EAEA" stroke-width="1.14999999">
            <g id="Group-15" transform="translate(948.000000, 0.000000)">
                <g id="e-mail" transform="translate(113.600002, 25.600000)">
                    <g id="mail-(1)">
                        <path d="M1.72499999,0 L15.5249999,0 C16.4737499,0 17.2499999,0.776249995 17.2499999,1.72499999 L17.2499999,12.0749999 C17.2499999,13.0237499 16.4737499,13.7999999 15.5249999,13.7999999 L1.72499999,13.7999999 C0.776249995,13.7999999 0,13.0237499 0,12.0749999 L0,1.72499999 C0,0.776249995 0.776249995,0 1.72499999,0 Z" id="Path"></path>
                        <polyline id="Path" points="17.2499999 1.72499999 8.62499995 7.76249995 0 1.72499999"></polyline>
                    </g>
                </g>
            </g>
        </g>
    </g>
</svg>