<?xml version="1.0" encoding="UTF-8"?>
<svg width="371px" height="505px" viewBox="0 0 371 505" version="1.1" xmlns="http://www.w3.org/2000/svg" xmlns:xlink="http://www.w3.org/1999/xlink">
    <!-- Generator: Sketch 61.2 (89653) - https://sketch.com -->
    <title>Fill 1@1,5x</title>
    <desc>Created with Sketch.</desc>
    <g id="Page-1" stroke="none" stroke-width="1" fill="none" fill-rule="evenodd" opacity="0.5">
        <g id="home" transform="translate(0.000000, -2823.000000)" stroke="#243039">
            <g id="Group-68" transform="translate(0.000000, 2739.000000)">
                <g id="iPhoneX" transform="translate(0.000000, 84.000000)">
                    <polygon id="Fill-1" points="297.091547 -14 177.442069 104.20856 177.442069 464.870422 131.020398 464.870422 131.020398 -14 69.9796018 -14 69.9796018 464.870422 20.4781332 464.870422 20.4781332 104.393881 -96.963936 -14 -183 -14 -40.5626632 129.584351 -40.5626632 526 238.482866 526 238.482866 129.769672 384 -14"></polygon>
                </g>
            </g>
        </g>
    </g>
</svg>