<?xml version="1.0" encoding="UTF-8"?>
<svg width="20px" height="24px" viewBox="0 0 20 24" version="1.1" xmlns="http://www.w3.org/2000/svg" xmlns:xlink="http://www.w3.org/1999/xlink">
    <!-- Generator: Sketch 61.2 (89653) - https://sketch.com -->
    <title>map-pin@1,5x</title>
    <desc>Created with Sketch.</desc>
    <g id="Page-1" stroke="none" stroke-width="1" fill="none" fill-rule="evenodd" opacity="0.5" stroke-linecap="round" stroke-linejoin="round">
        <g id="home" transform="translate(-862.000000, -1779.000000)" stroke="#E9EAEB">
            <g id="Group-46" transform="translate(0.000000, 1595.000000)">
                <g id="Group-45">
                    <g id="Group-44">
                        <g id="Group-43" transform="translate(863.000000, 105.000000)">
                            <g id="Group-42" transform="translate(0.000000, 80.000000)">
                                <g id="map-pin">
                                    <path d="M18,9.00000013 C18,16.0000001 9,22.0000001 9,22.0000001 C9,22.0000001 0,16.0000001 0,9.00000013 C0,4.0294373 4.0294373,1.34110451e-07 9,1.34110451e-07 C13.9705627,1.34110451e-07 18,4.0294373 18,9.00000013 L18,9.00000013 Z" id="Path"></path>
                                    <circle id="Oval" cx="9" cy="9" r="3"></circle>
                                </g>
                            </g>
                        </g>
                    </g>
                </g>
            </g>
        </g>
    </g>
</svg>