<?xml version="1.0" encoding="UTF-8"?>
<svg width="24px" height="24px" viewBox="0 0 24 24" version="1.1" xmlns="http://www.w3.org/2000/svg" xmlns:xlink="http://www.w3.org/1999/xlink">
    <!-- Generator: Sketch 61.2 (89653) - https://sketch.com -->
    <title>mute@1,5x</title>
    <desc>Created with Sketch.</desc>
    <g id="Page-1" stroke="none" stroke-width="1" fill="none" fill-rule="evenodd">
        <g id="home" transform="translate(-100.000000, -1431.000000)" fill="#B78353" fill-rule="nonzero">
            <g id="Group-72" transform="translate(100.000000, 957.000000)">
                <g id="Group-28">
                    <g id="Group-37">
                        <g id="Group-32" transform="translate(0.000000, 337.000000)">
                            <g id="Group-31" transform="translate(0.000000, 84.000000)">
                                <g id="mute" transform="translate(0.000000, 53.000000)">
                                    <path d="M19.2020862,4.79351779 C17.2781972,2.87164291 14.7205802,1.81311027 11.9999993,1.81311027 C9.6218256,1.81311027 7.30718952,2.64990219 5.48254364,4.16949439 C5.40655487,4.23284886 5.36077848,4.32495091 5.35638395,4.42382786 C5.35180632,4.52252171 5.38915984,4.61846897 5.45910614,4.68841524 L19.3081043,18.5253285 C19.3742054,18.5912464 19.4637439,18.6280507 19.5567616,18.6280507 C19.5618885,18.6280507 19.5671986,18.6280507 19.5725086,18.6276844 C19.6712025,18.6232899 19.7633045,18.5775135 19.826659,18.5017079 C21.347716,16.6787099 22.1852404,14.366088 22.1852404,11.9895623 C22.1852404,9.27136173 21.1257922,6.71575887 19.2020862,4.79351779 L19.2020862,4.79351779 Z M17.3783559,15.6033316 C18.0959462,14.5389395 18.4742421,13.2973014 18.4742421,11.992492 C18.4742421,10.2031854 17.7610463,8.53674268 16.4657583,7.30023149 C16.3998403,7.23742635 16.3635855,7.15264851 16.3635855,7.06146197 C16.3635855,6.97613485 16.3959951,6.89520221 16.4551382,6.83331259 C16.5811147,6.70147666 16.7911367,6.6967159 16.9231557,6.82287559 C18.3502797,8.1851802 19.1361683,10.0211786 19.1361683,11.992492 C19.1361683,13.4796745 18.6943348,14.8840934 17.8549794,16.0794058 L17.3783559,15.6033316 Z M19.5274647,17.7504262 L18.359435,16.5834951 C19.3286121,15.248107 19.8392932,13.6675407 19.8392932,11.992492 C19.8392932,9.82726995 18.9761341,7.81054641 17.4087514,6.31420861 C16.9963979,5.9205319 16.3406972,5.93554652 15.9468374,6.34735068 C15.762084,6.54071005 15.6602774,6.7943111 15.6602774,7.06146197 C15.6602774,7.34234577 15.7769156,7.61480669 15.9801626,7.80889847 C17.1350087,8.91137642 17.7711171,10.3970941 17.7711171,11.992492 C17.7711171,13.1092521 17.4603871,14.1736442 16.8704214,15.0957633 L14.6068717,12.8342278 L14.6068717,9.51452578 C14.6068717,9.32043404 14.4495841,9.1629633 14.2553092,9.1629633 C14.0612174,9.1629633 13.9037467,9.32043404 13.9037467,9.51452578 L13.9037467,12.1316521 L9.30761663,7.53955033 L13.4071647,5.17456024 C13.5567619,5.08831756 13.6887809,5.14581269 13.7385856,5.17474333 C13.7882072,5.20330778 13.9037467,5.28863495 13.9037467,5.46057099 L13.9037467,7.87591505 C13.9037467,8.07000683 14.0610343,8.22747753 14.2553092,8.22747753 C14.4495841,8.22747753 14.6068717,8.07000683 14.6068717,7.87591505 L14.6068717,5.46057099 C14.6068717,5.08721895 14.4136955,4.75268526 14.0903312,4.5659177 C13.7664176,4.3787839 13.3796989,4.3787839 13.0557854,4.56555151 L8.79235785,7.02484088 L6.23400844,4.46887183 C7.88250684,3.20690897 9.91497742,2.51623523 11.9999993,2.51623523 C17.2283925,2.51623523 21.4821154,6.76592978 21.4821154,11.9897454 C21.4821154,14.0729362 20.7905261,16.1037588 19.5274647,17.7504262 L19.5274647,17.7504262 Z" id="Shape"></path>
                                    <path d="M14.5041495,15.3032217 C14.5039664,15.3032217 14.5039664,15.3030387 14.5039664,15.3030387 L9.27612249,10.0797723 C9.27557317,10.0792231 9.27520698,10.0788568 9.27465765,10.0784906 L6.76007041,7.56591752 C6.75970418,7.56555133 6.75933799,7.5651851 6.75897175,7.565002 L4.67083711,5.47869839 C4.60089085,5.40893522 4.50530978,5.37231413 4.40588355,5.37615934 C4.3071897,5.3809201 4.21490455,5.42687958 4.15173313,5.50305145 C2.64477523,7.32147172 1.8147582,9.62512152 1.8147582,11.9897454 C1.8147582,14.5599967 2.77624493,17.013976 4.52233857,18.8994129 C6.25854455,20.7742297 8.61254831,21.9219347 11.1507561,22.1314074 C11.1606439,22.1323229 11.1703484,22.1325623 11.180053,22.1325623 C11.3611444,22.1325623 11.5149529,21.9935289 11.5301507,21.8098742 C11.5460808,21.6163317 11.40216,21.446593 11.2086175,21.4306628 C8.84600779,21.2356555 6.65460167,20.167052 5.03814668,18.4216908 C3.41290264,16.666625 2.51788316,14.3823844 2.51788316,11.9897454 C2.51788316,9.91790711 3.20233134,7.89623976 4.45257541,6.25451625 L5.66162076,7.46246295 L5.57299771,7.46246295 C5.0028073,7.46246295 4.53881809,7.92608597 4.53881809,8.49591015 L4.53881809,11.1811517 C4.53881809,11.3752435 4.69628878,11.5327142 4.89038057,11.5327142 C5.08465545,11.5327142 5.24194305,11.3752435 5.24194305,11.1811517 L5.24194305,8.49591015 C5.24194305,8.31372021 5.39044158,8.1655879 5.57299771,8.1655879 L6.36529504,8.1655879 L8.67517036,10.4734491 L8.67517036,14.8015128 C8.67517036,15.3598013 8.22051954,15.8139029 7.66168168,15.8139029 L5.57299771,15.8139029 C5.39044158,15.8139029 5.24194305,15.6655875 5.24194305,15.4833975 L5.24194305,12.8217766 C5.24194305,12.6275017 5.08465545,12.4702141 4.89038057,12.4702141 C4.69610569,12.4702141 4.53881809,12.6275017 4.53881809,12.8217766 L4.53881809,15.4833975 C4.53881809,16.0532217 5.0026242,16.5168447 5.57299771,16.5168447 L7.66168168,16.5168447 C7.77099563,16.5168447 7.87774612,16.5062246 7.98138379,16.4866323 L13.0559685,19.4137562 C13.2178337,19.50714 13.3952629,19.5538319 13.5728752,19.5538319 C13.7504875,19.5538319 13.9282829,19.5069569 14.0903312,19.41339 C14.4136955,19.2266224 14.6068717,18.8920887 14.6068717,18.5187367 L14.6068717,16.3998403 L17.7403554,19.5303944 C16.3018789,20.6264636 14.5989981,21.2814318 12.7913811,21.4306628 C12.5978386,21.446593 12.4539177,21.6163317 12.4698479,21.8098742 C12.4857781,22.0034167 12.6553337,22.1469713 12.8492424,22.1314074 C14.9295035,21.9596544 16.8806753,21.1642443 18.4918202,19.8312366 C18.5681752,19.7682483 18.6143177,19.6759632 18.6188954,19.5769031 C18.6236561,19.4780262 18.5863026,19.3817127 18.5163563,19.3117664 L14.5041495,15.3032217 Z M13.9037467,18.5187367 C13.9037467,18.6906727 13.7883903,18.7758167 13.7387687,18.8045643 C13.6887809,18.8333119 13.556945,18.8909901 13.4073479,18.8047474 L8.75646923,16.1218863 C9.13604683,15.8069449 9.37847846,15.3319693 9.37847846,14.8015128 L9.37847846,11.1760247 L13.9039299,15.6974478 L13.9039299,18.5187367 L13.9037467,18.5187367 Z" id="Shape"></path>
                                    <path d="M20.4851062,3.51159645 C18.2186268,1.24713129 15.2052603,0 12,0 C8.79473826,0 5.78137175,1.24713129 3.51470927,3.51159645 C1.24822989,5.77606166 0,8.7870478 0,11.9897454 C0,15.1922598 1.24822989,18.203246 3.51470927,20.4677112 C5.78137175,22.7321764 8.79473826,23.9793077 12,23.9793077 C15.2052603,23.9793077 18.2186268,22.7321764 20.4851062,20.4677112 C22.7517687,18.203246 24,15.1922598 24,11.9897454 C24,8.7870478 22.7517687,5.77606166 20.4851062,3.51159645 Z M19.988158,19.9703967 C17.8544301,22.1022936 15.0175772,23.2761827 11.9999993,23.2761827 C8.98242134,23.2761827 6.14556849,22.1022936 4.0118406,19.9703967 C1.87811267,17.838683 0.703124958,15.0043936 0.703124958,11.9897454 C0.703124958,8.97509712 1.87811267,6.14080773 4.0118406,4.00891092 C6.14556849,1.87719715 8.98242134,0.703124958 11.9999993,0.703124958 C15.0175772,0.703124958 17.8544301,1.87719715 19.988158,4.00891092 C22.1218859,6.14080773 23.2968736,8.97509712 23.2968736,11.9897454 C23.2968736,15.0043936 22.1218859,17.838683 19.988158,19.9703967 Z" id="Shape"></path>
                                </g>
                            </g>
                        </g>
                    </g>
                </g>
            </g>
        </g>
    </g>
</svg>