<?xml version="1.0" encoding="UTF-8"?>
<svg width="19px" height="19px" viewBox="0 0 19 19" version="1.1" xmlns="http://www.w3.org/2000/svg" xmlns:xlink="http://www.w3.org/1999/xlink">
    <!-- Generator: Sketch 61.2 (89653) - https://sketch.com -->
    <title>hiroshima_zagazap@1,5x</title>
    <desc>Created with Sketch.</desc>
    <g id="Page-1" stroke="none" stroke-width="1" fill="none" fill-rule="evenodd" stroke-linecap="round" stroke-linejoin="round">
        <g id="home" transform="translate(-1224.000000, -23.000000)" stroke="#E5EAEA">
            <g id="Group-15" transform="translate(948.000000, 0.000000)">
                <g id="hiroshima_zagazap" transform="translate(276.800004, 24.000000)">
                    <g id="Group-4">
                        <g id="message-circle-(1)" stroke-width="1.14999999">
                            <path d="M17.2499999,8.14584769 C17.2532705,9.41071901 16.9577474,10.6584831 16.387474,11.7875086 C15.0083953,14.54686 12.1889337,16.2904744 9.1041522,16.2916681 C7.83928089,16.2949659 6.59151681,15.9994429 5.46249132,15.4291695 L0,17.2499999 L1.82083044,11.7875086 C1.25055702,10.6584831 0.95503395,9.41071901 0.958331811,8.14584769 C0.959525469,5.06106623 2.70313992,2.24160457 5.46249132,0.862525931 C6.59151681,0.292252513 7.83928089,-0.00327056041 9.1041522,0 L9.58331811,0 C13.7192956,0.228205809 17.0217941,3.53070433 17.2499999,7.66668179 L17.2499999,8.14584769 L17.2499999,8.14584769 Z" id="Path"></path>
                        </g>
                        <g id="phone-(1)" transform="translate(6.133333, 5.366667)" stroke-width="0.919999995">
                            <path d="M5.74981942,4.30497803 L5.74981942,5.17058453 C5.75048027,5.33307188 5.68247108,5.4883078 5.56249983,5.59815515 C5.44252857,5.70800249 5.28171393,5.76228085 5.11956357,5.74765553 C4.22992965,5.65118102 3.37537364,5.34778703 2.62455992,4.86185154 C1.92602484,4.41885256 1.33378904,3.8277899 0.889910792,3.13063854 C0.401311611,2.37790828 0.0972463957,1.52089742 0.00234865643,0.629035758 C-0.0122590521,0.467707577 0.0417460097,0.307680044 0.151171658,0.188044176 C0.260597306,0.0684083066 0.415366948,0.000180914408 0.577673949,0 L1.44499851,0 C1.73522383,-0.00282240758 1.98259543,0.209495759 2.02321489,0.496309428 C2.05982264,0.773322682 2.12771288,1.04531368 2.22559062,1.30709418 C2.30501876,1.51797758 2.25421669,1.75571099 2.09549193,1.91590409 L1.72832454,2.28234417 C2.13988608,3.00470602 2.73917806,3.60281088 3.46297366,4.01355717 L3.83014106,3.64711709 C3.99065211,3.48870675 4.22885738,3.43800531 4.44015933,3.51727611 C4.70245942,3.61495996 4.97499027,3.68271573 5.25255334,3.71925096 C5.54326974,3.7601827 5.75710206,4.01205465 5.74981942,4.30497803 Z" id="Path"></path>
                        </g>
                    </g>
                </g>
            </g>
        </g>
    </g>
</svg>